<?xml version="1.0" encoding="utf-8"?>
<!-- Generator: Adobe Illustrator 21.0.0, SVG Export Plug-In . SVG Version: 6.00 Build 0)  -->
<svg version="1.1" id="Layer_1" xmlns="http://www.w3.org/2000/svg" xmlns:xlink="http://www.w3.org/1999/xlink" x="0px" y="0px"
	 viewBox="0 0 20 20" style="enable-background:new 0 0 20 20;" xml:space="preserve">
<title>minus</title>
<path d="M16,10c0,0.6,0,1-0.6,1H4.6C4,11,4,10.6,4,10s0-1,0.6-1h10.8C16,9,16,9.4,16,10z"/>
</svg>
